{
    "homepage": {
        "title": "Apa itu YesBoss?",
        "description": "Asisten pribadi secara virtual melalui SMS untuk membantu Anda melakukan berbagai hal di tengah kesibukan. GRATIS!",
        "email": "Alamat email Anda",
        "button": "Saya mau asisten pribadi!",
        "special": "*Tarif SMS setiap operator berlaku."
    },
    "homepage2": {
        "title": "Terima kasih, Boss!",
        "description": "Kami senang dapat melayani kebutuhan Anda. Mohon ikuti instruksi di bawah ini.",
        "beforeCode": "Kirim SMS kode berikut ",
        "afterCode": " ke",
        "phone": "+62 855 746 700 33"
    },
	"how": {
        "title": "Cara menggunakan YesBoss",
        "items": [
            {
                "title": "Kirimkan permintaan Anda melalui SMS",
                "image": "images/how1.png",
                "description": "Kami dapat memenuhi permintaan Anda mulai dari pemesanan makanan hingga pembelian tiket pesawat selama permintaan Anda tidak ilegal."
            },
            {
                "title": "Permintaan Anda akan diproses",
                "image": "images/how2.png",
                "description": "Kami akan mendapatkan harga terbaik untuk Anda kemudian memproses detail pembayaran dan pengantaran dengan persetujuan Anda."
            },
            {
                "title": "Permintaan Anda terpenuhi!",
                "image": "images/how3.png",
                "description": "Anda akan mendapatkan barang atau jasa yang Anda minta tanpa biaya tambahan!"
            }
        ],
        "button": "Menarik, saya ingin mendaftar!",
        "alternate": "Saya ingin bertanya tentang layanan ini"
    },
    "testimonial": {
        "title": "Pendapat beberapa orang mengenai kami",
        "items": [
            {
                "image": "images/pandji.png",
                "name": "Panji Pragiwaksono",
                "words": "Got it. Thanks. Good job.",
                "description": "stand up comedian, rapper and writer",
                "twitter": "pandji"
            },
            {
                "image": "images/audrio.png",
                "name": "Audrio Susanto",
                "words": "Great service, man! This is a million dollar idea!",
                "description": "owner of Aye! Denim",
                "twitter": "audrio"
            },
            {
                "image": "images/alanda.png",
                "name": "Alanda Kariza",
                "words": "Servis YesBoss oke banget! Sangat membantu di sela-sela kesibukan. Benar-benar seperti punya asisten pribadi! Cobain deh.",
                "description": "writer",
                "twitter": "alandakariza"
            },
            {
                "image": "images/sunil.png",
                "name": "Sunil Tolani",
                "words": "I am very happy to use the service of YesBoss. Very friendly and they actually help you to get things done! I am impressed! Great job!",
                "description": "founder of Calibreworks",
                "twitter": "sunoneal"
            }

        ],
        "button": "Menarik, saya ingin mendaftar!",
        "alternate": "Saya ingin bertanya tentang layanan ini"
    },
    "faq": {
        "title": "Frequently Asked Questions",
        "items": [
            {
                "title": "Apa yang YesBoss bisa lakukan untuk saya?",
                "description": "Tujuan kami adalah untuk membuat hidup Anda lebih mudah dan menyenangkan. Anggap kami sebagai asisten pribadi yang akan memenuhi segala permintaan Anda. Anda cukup mengirimkan permintaan Anda kepada kami melalui SMS dan kami siap memenuhi permintaan Anda. Kami ada untuk mempermudah hidup Anda, karena Your Time Matters!"
            },
            {
                "title": "Permintaan seperti apa yang bisa dipenuhi oleh YesBoss?",
                "description": "Mulai dari delivery makanan, reservasi kamar hotel atau restoran, pemesanan tiket pesawat, belanja harian, pengiriman karangan bunga, sampai dengan meringankan pekerjaan rumah Anda."
            },
            {
                "title": "Seberapa cepat permintaan saya akan dipenuhi?",
                "description": "Secepat mungkin setelah kami selesai memproses permintaan Anda. Kami akan meneruskan permintaan Anda kepada partner kami yang akan menindaklanjuti permintaan Anda."
            },
            {
                "title": "Bagaimana saya melakukan pembayaran?",
                "description": "Kami bekerja sama dengan Veritrans, online payment gateway terkemuka di Indonesia. Anda dapat melakukan pembayaran melalui link yang akan kami sediakan setelah Anda mengonfirmasi permintaan Anda."
            },
            {
                "title": "Berapakah biaya untuk menggunakan YesBoss?",
                "description": "Kami tidak mengenakan biaya tambahan apapun untuk segala permintaan Anda. Jika permintaan Anda tidak membutuhkan transaksi keuangan, maka Anda tidak perlu membayar sepeser pun."
            },
            {
                "title": "Apakah ini aman?",
                "description": "Sangat aman! Layanan kami menggunakan HTTPS link yang terenskripsi melalui SMS, sehingga Anda dapat memilih satu dari banyak metode pembayaran yang ditawarkan. Semua transaksi diproses oleh Veritrans. Kami tidak akan menyimpan atau menyebarluaskan data yang bersifat sangat rahasia. YesBoss selalu mengutamakan kenyamanan dan keamanan Anda dalam setiap proses permintaan dan transaksi."
            }
        ],
        "button": "Menarik, saya ingin mendaftar!"
    },
    "press": {
        "title": "Publikasi",
        "subtitle": "Beberapa liputan mengenai YesBoss dalam berbagai media",
        "items": [
            {"image": "images/detik.png", "link": "http://inet.detik.com/read/2015/09/08/115655/3013054/398/asisten-digital-agar-gak-tua-di-jalanan-jakarta"},
            {"image": "images/metrotv.png", "link": "http://teknologi.metrotvnews.com/read/2015/07/10/145916/yesboss-tawarkan-asisten-pribadi-gratis"},
            {"image": "images/jakartapost.png", "link": "http://www.thejakartapost.com/news/2015/08/12/text-a-boss.html"},
            {"image": "images/cnn.png", "link": "http://www.cnnindonesia.com/teknologi/20150623175014-185-61925/yesboss-asisten-pribadi-digital-untuk-semua-kebutuhan/"},
            {"image": "images/techinasia.png", "link": "https://www.techinasia.com/indonesia-yesboss-sms-anything/"},
            {"image": "images/dailysocial.png", "link": "http://en.dailysocial.id/post/yesboss-grabs-seed-funding/"},
            {"image": "images/e27.png", "link": "http://e27.co/yesboss-secures-seed-funding-500-startups-imj-convergence-20151006/"},
            {"image": "images/yahoo.png", "link": "http://id.news.qa2p.global.media.yahoo.com/mengenal-yesboss,-asisten-pribadi-virtual-064531330.html"},
            {"image": "images/kontan.png", "link": "http://peluangusaha.kontan.co.id/news/duh-enaknya-punya-asisten-pribadi-virtual"},
            {"image": "images/merdeka.png", "link": "http://www.merdeka.com/teknologi/yesboss-layanan-asisten-pribadi-virtual-berbasis-sms.html"}
        ],
        "button": {
            "title": "Download siaran pers",
            "file": "YB Press Kit 2015.zip"
        },
        "alternate": "press@yesbossnow.com"
    },
    "contact": {
        "title": "Get in Touch",
        "subtitle": "Thanks for being interested in our Business.",
        "itemsLeft": [
            {"label": "YesBoss Group PTE. LTD.", "description": ""},
            {"label": "Kantor Pusat", "description": "Jalan Haji Jian Nomor 9, Cipete Utara, 12510, Jakarta Selatan"},
            {"label": "Manajemen YesBoss", "description": "Irzan Raditya, Chris Franke, Wahyu Wrehasnaya, Reynir Fauzan"}
        ],
        "itemsRight": [
            {"label": "Umum", "description": "info@yesbossnow.com"},
            {"label": "Pekerjaan", "description": "jobs@yesbossnow.com"},
            {"label": "Media", "description": "press@yesbossnow.com"},
            {"label": "Kemitraan", "description": "business@yesbossnow.com"}
        ]
    },
    "business": {
        "title": "Let's partner up!",
        "subtitle": "Apabila Anda memiliki kegiatan usaha dan tertarik untuk bermitra dengan kami, silakan isi formulir di bawah ini.",
        "subject": "Judul",
        "name": "Nama",
        "email": "Alamat email",
        "message": "Ketik pesan Anda di sini…",
        "submit": "Kirim pesan sekarang"
    },
    "jobs": {
        "heading": "We’re hiring!",
        "description": "Mari bergabung bersama kami untuk membangun \"the next big thing\" di industri startup Indonesia!",
        "subDescription": "Kami di YesBoss percaya bahwa seseorang tidak hanya harus berkembang secara profesional, tetapi juga secara personal. Dengan bekerja bersama kami, Anda akan memiliki kesempatan untuk mengembangkan diri Anda dalam kedua aspek tersebut. Kami juga menciptakan ikatan yang kuat dalam tim kami, sehingga semua orang adalah keluarga!",
        "title": "Lowongan yang Tersedia",
        "bottom": "Apabila Anda tertarik untuk bergabung bersama kami namun tidak dapat menemukan lowongan pekerjaan yang sesuai, silakan kirimkan CV dan application letter Anda ke <a href='#''>jobs@yesbossnow.com</a>",
        "positionLeft": [
            {
                "title": "IT",
                "subitem": [
					{
                        "name": "product-manager",
                        "title": "Product Manager (m/f)",
                        "file": "Product Manager (m.f).pdf",
                        "description": "Location: Jakarta<br>From: As soon as possible<br><br>YesBoss is an on-demand virtual assistance service via text messages to make people's lives easier. Whether it is food delivery service, hotel reservation, flight ticket booking, groceries shopping, simply anything – because time matters. Our vision is to help people to have more time for more important things in life. We’re based in Jakarta with a highly motivated international team.<br><br>We are looking for a highly motivated, communicative Product Manager who will strengthen our team. As a Product Manager, you will work closely with cross-functional teams including engineering, UX, operation and marketing to deliver extraordinaire products and features that will help us to strengthen our market position in conversational commerce.",
                        "detail": [
                            {
                                "title": "Responsibilities",
                                "item":[
                                    "Conceiving, specifying and driving the development of new features and products based on market research, competitive analysis and customer input and feedback.",
                                    "Developing and presenting solid business cases of support new concepts.",
                                    "Driving continuous improvements to the products with focus on growth, customer satisfaction and retention.",
                                    "Defining and writing product backlogs and drives prioritization within an agile team.",
                                    "Monitoring ongoing operations to maintain a quality user experience, track Key Performance Indicators (KPIs)and identify areas of opportunity.",
                                    "Monitoring released products, setting and monitoring appropriate KPIs to ensure products are meeting theirgoals."
                                ]
                            },
                            {
                                "title": "Requirements",
                                "item": [
                                    "Bachelor’s degree or higher in a relevant discipline.",
                                    "Minimum of 3 years of product management experience in an environment known for best-in-class products and services.",
                                    "Proven experience with agile methodologies.",
                                    "Strong business strategy and product marketing acumen.",
                                    "Basic Knowledge in Web Technologies.",
                                    "Background in data analysis, web analytics, A/B testing.",
                                    "Proven track record of leading cross-functional teams to deliver quality products.",
                                    "Exceptional communicator, with strong presentation skills.",
                                    "High attention to detail.",
                                    "Fluent in English.",
                                    "Previous experience working in a startup or dynamic high-growth companies a plus."
                                ]
                            },
                            {
                                "title": "Benefits",
                                "item": [
                                    "An ambitious, international startup environment with a vision and strategy to create something BIG",
                                    "Very flexible working-time",
                                    "A competitive compensation",
                                    "Professional, casual, urban office environment"
                                ]
                            }
                        ]
                    },
                    {
                        "name": "sr-ios-engineer",
                        "title": "Sr. iOS Engineer (m/f)",
                        "file": "Sr. iOS Engineer (m.f).pdf",
                        "description": "Location: Jakarta<br>From: As soon as possible<br><br>YesBoss is an on-demand virtual assistance service via text messages to make people's lives easier. Whether it is food delivery service, hotel reservation, flight ticket booking, groceries shopping, simply anything – because time matters. Our vision is to help people to have more time for more important things in life. We’re based in Jakarta with a highly motivated international team.<br><br>You would like to work in an early stage startup where you have more freedom and responsibilities? You will work closely with some great and passionate engineers who strive to be one of the best consumer-centric tech startups in Indonesia. You will get opportunities to enhance your skills and learn new state of technologies.",
                        "detail": [
                            {
                                "title": "Responsibilities",
                                "item":[
                                    "Develop and maintain YesBoss app codebase",
                                    "Promote clean code and reusable components",
                                    "Promote and write effective unit tests and documentation",
									"Actively participate on features and tools development with design and product team",
									"Collaborate and mentor other members of the team",
									"Help troubleshoot issues and optimize performance",
									"Maintain Unit Tests and CI for iOS"
                                ]
                            },
                            {
                                "title": "Requirements",
                                "item": [
                                    "Strong knowledge of Cocoa, Objective-C or Swift, and Xcode",
                                    "Strong understanding of MVC, iOS application architecture, application lifecycle and ARC",
                                    "Knowledge of Object Oriented concepts and a strong passion for software development",
                                    "Strong interaction and design sense",
                                    "Good understanding of iOS design patterns",
                                    "Good understanding of clean code",
                                    "Familiarity with asynchronous operation, graphics, and animation",
                                    "Familiarity with Core Data (or using wrapper like Magical Record), FMDB, or Realm",
                                    "Have published minimum 3 apps to App Store",
                                    "Knowledge of RESTful web service",
									"Great communication and collaboration skills and a strong teamwork ethic",
									"Good decision about short-term long term features",
									"It would be a plus if you : <br>- Have implemented unit test using XCTest or Specta/Expecta. <br>- Understanding of MVVM and ReactiveCocoa framework.<br>- Understanding of how to distribute iOS apps to App Store and how Apple review works.<br>- Knowledge of agile software development.<br>- Familiarity of Javascript."

                                ]
                            },
                            {
                                "title": "Benefits",
                                "item": [
                                    "An ambitious, international startup environment with a vision and strategy to create something BIG",
                                    "Working with young ambitious people on a great product",
                                    "A competitive compensation",
                                    "Professional, casual, urban office environment"
                                ]
                            }
                        ]
                    },
                    {
                        "name": "sr-android-engineer",
                        "title": "Sr. Android Engineer (m/f)",
                        "file": "Sr. Android Engineer (m.f).pdf",
                        "description": "Location: Jakarta<br>From: As soon as possible<br><br>YesBoss is an on-demand virtual assistance service via text messages to make people's lives easier. Whether it is food delivery service, hotel reservation, flight ticket booking, groceries shopping, simply anything – because time matters. Our vision is to help people to have more time for more important things in life. We’re based in Jakarta with a highly motivated international team.<br><br>You would like to work in an early stage startup where you have more freedom and responsibilities? You will work closely with some great and passionate engineers who strive to be one of the best consumer-centric tech startups in Indonesia. You will get opportunities to enhance your skills and learn new state of technologies.",
                        "detail": [
                            {
                                "title": "Responsibilities",
                                "item":[
                                    "Develop and maintain YesBoss app codebase",
                                    "Promote clean code and reusable components",
                                    "Promote and write effective unit tests and documentation",
									"Actively participate on features and tools development with design and product team",
									"Collaborate and mentor other members of the team",
									"Help troubleshoot issues and optimize performance",
									"Maintain Unit Tests and CI"
                                ]
                            },
                            {
                                "title": "Requirements",
                                "item": [
                                    "3 years experience of Android application development using Android SDK.",
                                    "Strong knowledge of Java.",
                                    "Good knowledge of Object Oriented concepts and a strong passion for software development.",
                                    "Strong interaction and design sense.",
                                    "Good understanding of clean code.",
                                    "Have published minimum 3 apps to Google Play.",
                                    "Knowledge about RESTful web service.",
                                    "Great communication and collaboration skills and strong teamwork ethic.",
                                    "Good decision-making about short-term long term features.",
									"It would be a plus if you :<br>- Experience with Android Market place & Distribution Process.<br>- Have Implemented Unit Test in real project.<br>- Knowledge of agile software development.<br>- Familiarity with Javascript."

                                ]
                            },
                            {
                                "title": "Benefits",
                                "item": [
                                    "An ambitious, international startup environment with a vision and strategy to create something BIG",
                                    "Working with young ambitious people on a great product",
                                    "A competitive compensation",
                                    "Professional, casual, urban office environment"
                                ]
                            }
                        ]
                    },
					{
                        "name": "sr-frontend-engineer",
                        "title": "Sr. Frontend Engineer (m/f)",
                        "file": "Sr. Frontend.pdf",
                        "description": "Location: Jakarta<br>From: As soon as possible<br><br>YesBoss is an on-demand virtual assistance service via text messages to make people's lives easier. Whether it is food delivery service, hotel reservation, flight ticket booking, groceries shopping, simply anything – because time matters. Our vision is to help people to have more time for more important things in life. We’re based in Jakarta with a highly motivated international team.<br><br>You would like to work in an early stage startup where you have more freedom and responsibilities? You will work closely with some great and passionate engineers who strive to be one of the best consumer-centric tech startups in Indonesia. You will get opportunities to enhance your skills and learn new state of technologies.",
                        "detail": [
                            {
                                "title": "Responsibilities",
                                "item":[
                                    "Develop new user-facing features",
                                    "Build reusable code and libraries for future use",
                                    "Ensure the technical feasibility of UI/UX designs"
                                ]
                            },
                            {
                                "title": "Requirements",
                                "item": [
                                    "Expertise and passion for building beautiful and smooth cross-browser/device web applications with Javascript, HTML5, CSS3",
                                    "Strong eye for UX design, attention to detail",
                                    "Production-level Experience with AngularJS / React",
                                    "Strong understanding of front end data flow architectures (MVC / MVVM, Flux)",
                                    "Solid understanding of the full web technology stack: HTTP, cookies, headers, asset loading/ caching, client persistence strategies, multi-env flows",
                                    "Disciplined approach to writing tests and quality assurance",
                                    "Competent with Git, versioning flows, pull requests and code reviews",
                                    "Strong ability to communicate technical decisions as well as forecast short-term and long-term implementation issues",
                                    "Ability to implement new features while optimizing existing ones, rapidly fix bugs and solve problems across multiple web properties",
                                    "A strong desire to create your best work and raise the bar for your team. Curious and collaborative in all aspects of your work"
                                ]
                            },
                            {
                                "title": "Benefits",
                                "item": [
                                    "An ambitious, international startup environment with a vision and strategy to create something BIG",
                                    "Working with young ambitious people on a great product",
                                    "A competitive compensation",
                                    "Time for personal development"
                                ]
                            }
                        ]
                    },
                    {
                        "name": "jr-ios-engineer",
                        "title": "Jr. iOS Engineer (m/f)",
                        "file": "Jr. iOS Engineer (m.f).pdf",
                        "description": "Location: Jakarta<br>From: As soon as possible<br><br>YesBoss is an on-demand virtual assistance service via text messages to make people's lives easier. Whether it is food delivery service, hotel reservation, flight ticket booking, groceries shopping, simply anything – because time matters. Our vision is to help people to have more time for more important things in life. We’re based in Jakarta with a highly motivated international team<br><br>You would like to work in an early stage startup where you have more freedom and responsibilities? You will work closely with some great and passionate engineers who strive to be one of the best consumer-centric tech startups in Indonesia. You will get opportunities to enhance your skills and learn new state of technologies.",
                        "detail": [
                            {
                                "title": "Responsibilities",
                                "item":[
                                    "Develop and maintain YesBoss app codebase.",
                                    "Write clean and maintainable code.",
                                    "Actively participate on features and tools development with design and product team.",
                                    "Actively learn new thing."
                                ]
                            },
                            {
                                "title": "Requirements",
                                "item": [
                                    "Good knowledge in one of the following programming language: C/C++, Javascript, Python, Ruby, Java.",
                                    "Good knowledge of Object Oriented concepts and a strong passion for software development.",
                                    "Strong analytical and problem solving ability.",
                                    "Understanding of algorithms and data structure.",
                                    "Have done mini-project or involved in some projects before.",
                                    "Eager to learn iOS mobile app development.",
                                    "Have previously done an iOS mobile development project would be a plus."
                                ]
                            },
                            {
                                "title": "Benefits",
                                "item": [
                                    "An ambitious, international startup environment with a vision and strategy to create something BIG",
                                    "Working with young ambitious people on a great product",
                                    "A competitive compensation",
                                    "Professional, casual, urban office environment"
                                ]
                            }
                        ]
                    },
                    {
                        "name": "jr-android-engineer",
                        "title": "Jr. Android Engineer (m/f)",
                        "file": "Jr. Android Engineer (m.f).pdf",
                        "description": "Location: Jakarta<br>From: As soon as possible<br><br>YesBoss is an on-demand virtual assistance service via text messages to make people's lives easier. Whether it is food delivery service, hotel reservation, flight ticket booking, groceries shopping, simply anything – because time matters. Our vision is to help people to have more time for more important things in life. We’re based in Jakarta with a highly motivated international team.<br><br>You would like to work in an early stage startup where you have more freedom and responsibilities? You will work closely with some great and passionate engineers who strive to be one of the best consumer-centric tech startups in Indonesia. You will get opportunities to enhance your skills and learn new state of technologies.",
                        "detail": [
                            {
                                "title": "Responsibilities",
                                "item":[
                                    "Develop and maintain YesBoss app code-base.",
                                    "Write clean and maintainable code.",
                                    "Actively participate on features and tools development with design and product team.",
                                    "Actively learn new things."
                                ]
                            },
                            {
                                "title": "Requirements",
                                "item": [
                                    "Good knowledge in one of the following programming language: C/C++, Javascript, Python, Ruby, Java.",
                                    "Good knowledge of Object Oriented concepts and a strong passion for software development.",
                                    "Strong analytical and problem solving ability.",
                                    "Good understanding of algorithms and data structure.",
                                    "Has done any web or mobile project before.",
                                    "Eager to learn more about Android mobile app development.",
                                    "Have written or involved in at least one Android app would be a plus."
                                ]
                            },
                            {
                                "title": "Benefits",
                                "item": [
                                    "An ambitious, international startup environment with a vision and strategy to create something BIG",
                                    "Working with young ambitious people on a great product",
                                    "A competitive compensation",
                                    "Professional, casual, urban office environment"
                                ]
                            }
                        ]
                    },
                    {
                        "name": "backend-engineer",
                        "title": "Backend Engineer (m/f)",
                        "file": "Backend Engineer.pdf",
                        "description": "Location: Jakarta<br>From: As soon as possible<br><br>YesBoss is an on-demand virtual assistance service via text messages to make people's lives easier. Whether it is food delivery service, hotel reservation, flight ticket booking, groceries shopping, simply anything – because time matters. Our vision is to help people to have more time for more important things in life. We’re based in Jakarta with a highly motivated international team.<br><br>You would like to work in an early stage startup where you have more freedom and responsibilities? You will work closely with some great and passionate engineers who strive to be one of the best consumer-centric tech startups in Indonesia. You will get opportunities to enhance your skills and learn new state of technologies.",
                        "detail": [
                            {
                                "title": "Responsibilities",
                                "item":[
                                    "Develop Core Services for YesBoss Technology environmen",
                                    "Work together in defining and implementing the best technology stack for our technology development"
                                ]
                            },
                            {
                                "title": "Requirements",
                                "item": [
                                    "2-3 years professional experience with .NET / Spring / Play / Laravel / NodeJS",
                                    "Fluent with Javascript",
                                    "Familiarity with standard javascript asynchronous pattern (Promise, async / await, callback, closures)",
                                    "Moderate CS fundamentals and OOP Knowledge",
                                    "Familiarity with RESTful API",
                                    "Familiarity with SOA / Microservice architecture",
                                    "Familiarity with GIT",
                                    "Agile coding experience",
                                    "Eager to learn new things",
                                    "Team work and positive attitude"

                                ]
                            },
                            {
                                "title": "Benefits",
                                "item": [
                                    "An ambitious, international startup environment with a vision and strategy to create something BIG",
                                    "Competitive compensation",
                                    "Working with young ambitious people on a great product",
                                    "Time for personal development"
                                ]
                            }
                        ]
                    },
                    {
                        "name": "devops-engineer",
                        "title": "DevOps Engineer (m/f)",
                        "file": "DevOps Engineer.pdf",
                        "description": "Location: Jakarta<br>From: As soon as possible<br><br>YesBoss is an on-demand virtual assistance service via text messages to make people's lives easier. Whether it is food delivery service, hotel reservation, flight ticket booking, groceries shopping, simply anything – because time matters. Our vision is to help people to have more time for more important things in life. We’re based in Jakarta with a highly motivated international team.<br><br>You would like to work in an early stage startup where you have more freedom and responsibilities? You will work closely with some great and passionate engineers who strive to be one of the best consumer-centric tech startups in Indonesia. You will get opportunities to enhance your skills and learn new state of technologies.",
                        "detail": [
                            {
                                "title": "Responsibilities",
                                "item":[
                                    "Managing infrastructure, production database and system administration"
                                ]
                            },
                            {
                                "title": "Requirements",
                                "item": [
                                    "Experience with infrastructure automation tools",
                                    "Strong knowledge of UNIX/Linux, especially in virtualized environment",
                                    "Familiar with managing cloud infrastructure",
                                    "Experience with running reliable production databases",
                                    "Experience using CI tools, like Jenkins/ Travis",
                                    "Strong system administration skills",
                                    "3 years experiences of maintaining live infrastructures",
                                    "Knowledge of following tech-stack: Python, Nginx, Javascript, Nodejs, MongoDb, EC2, S3, git",
                                    "Eager to learn new things",
                                    "Team work and positive attitude",
                                    "Sense of humor would be a plus"

                                ]
                            },
                            {
                                "title": "Benefits",
                                "item": [
                                    "An ambitious, international startup environment with a vision and strategy to create something BIG",
                                    "Competitive compensation",
                                    "Working with young ambitious people on a great product",
                                    "Professional, casual, urban office environment"
                                ]
                            }
                        ]
                    },
                    {
                        "name": "growth-engineer",
                        "title": "Growth Engineer, intern (m/f)",
                        "file": "Growth Engineer (intern).pdf",
                        "description": "Location: Jakarta<br>From: As soon as possible for minimum 6 month<br><br>YesBoss is an on-demand virtual assistance service via text messages to make people's lives easier. Whether it is food delivery service, hotel reservation, flight ticket booking, groceries shopping, simply anything – because time matters. Our vision is to help people have more time for more important things in life. We’re based in Berlin and Jakarta with a highly motivated international team.<br><br>You like working on early stage startup where you have more freedom and responsibilities? You will join a great team of passionate engineers and growth hackers who strive to be one of the best tech startup in Indonesia. You will work on our ideas to expand our user base by developing and optimizing our newsletters and landingpages as well as other challenging projects. You will get opportunities to develop your technical skills and learn new state-of-the-art technologies.",
                        "detail": [
                            {
                                "title": "Responsibilities",
                                "item":[
                                    "Front-end development using Javascript / HTML / CSS /SASS",
                                    "Back-end development using NodeJS / TypeScript / Javascript"
                                ]
                            },
                            {
                                "title": "Requirements",
                                "item": [
                                    "Working experience in Tech Project",
                                    "Experience in Javascript, HTML, CSS",
                                    "Eager to learn new things",
                                    "Strong interest in design and marketing",
                                    "Excellent oral and written communication skills in English and Bahasa",
                                    "Ability to solve problems quickly and completely",
                                    "Ability to stay organized in a dynamic work environment",
                                    "Knowledge in other programming languages is a plus",
                                    "Team work and positive attitude"
                                ]
                            },
                            {
                                "title": "Benefits",
                                "item": [
                                    "Very flexible working-time",
                                    "Working in International Team",
                                    "A competitive compensation"
                                ]
                            }
                        ]
                    }
                ]
            },

            {
                "title": "People Development",
                "subitem": [
                    {
                        "name": "legal-ga",
                        "title": "Legal & GA Assistant (m/f)",
                        "file": "Legal and GA Assistant.pdf",
                        "description": "Location: Jakarta<br>From: As soon as possible<br><br>YesBoss is an on-demand virtual assistance service via text messages to make people's lives easier. Whether it is food delivery service, hotel reservation, flight ticket booking, groceries shopping, simply anything – because time matters. Our vision is to help people have more time for more important things in life. We’re based in Berlin and Jakarta with a highly motivated international team.<br><br>You would like to work in an early stage startup where you have more freedom and responsibilities? You will join a great team of passionate people who strive to be one of the best consumer-centric tech startups in Indonesia. We offer you the opportunity to grow within a wide range of high-level skills. As a part of our HR & GA team, you will work on various tasks and each day brings new challenges that will sharpen your communication, writing, research and investigative skills. Ready to beat some challenges with us?",
                        "detail": [
                            {
                                "title": "Responsibilities",
                                "item":[
                                    "Conduct legal research",
                                    "Draft contracts and business agreements",
                                    "Correspondence with lawyers",
                                    "Maintains records and files",
                                    "Assistant to the Board of Directors",
                                    "Taking care of facility management and maintenance"
                                ]
                            },
                            {
                                "title": "Requirements",
                                "item": [
                                    "At least Bachelor degree, preferably with a major as secretary, in law or business administration",
                                    "2 (two) years related experience",
                                    "Excellent skills and knowledge of Ms. Word, Windows, PowerPoint, Excel and Outlook",
                                    "Understand office workflow and applicable company policies and procedures",
                                    "Eager to learn new things",
                                    "Excellent oral and written communication skills in English and Bahasa",
                                    "Attention to detail is crucial",
                                    "Ability to stay organized in a dynamic work environment",
                                    "Team work and positive attitude"
                                ]
                            },
                            {
                                "title": "Benefits",
                                "item": [
                                    "An ambitious, international startup environment with a vision and strategy to create something BIG",
                                    "Working in International Team",
                                    "A competitive compensation",
                                    "Professional, casual, urban office environment"
                                ]
                            }
                        ]
                    },
                    {
                        "name": "hr-ga-intern",
                        "title": "HR & GA, intern (m/f)",
                        "file": "HR and GA intern (m-f).pdf",
                        "description": "Location: Jakarta<br>From: As soon as possible<br><br>YesBoss is an on-demand personal butler service via text messages to make people's lives easier. Whether it is food delivery service, hotel reservation, flight ticket booking, groceries shopping, simply anything – because time matters.<br><br>As the companies HR Generalist you will be under the supervision of the local directors and reporting directly to the manager. You will be responsible to manage human resources and general affairs function to support the key business needs. You are a dynamic, driven and open-minded individual who loves to work with people of all kinds. Communication is one of your core competences and you are a problem- solving talent who values people’s opinions. It is important to you to act in the best interest of the company as well as for the employees. Your time management and adaptability to company’s culture and environment will help to support company’s operations.",
                        "detail": [
                            {
                                "title": "Responsibilities",
                                "item":[
                                    "Managing Day-to-Day HR Operation",
                                    "Talk informally with employees and attend meetings of managers to provide assistance in identifying, evaluating, and resolving human relations and work performance problems within the organization to facilitate communication and improve employee human relations skills.",
                                    "Establishes and leads recruitment practices and procedures necessary to recruit and retain an effective workforce.",
                                    "Handle special projects and additional responsibilities as required.",
                                    "Generate offer letters and contractor agreements",
                                    "Maintain employment records to include personnel, benefits, medical, and sensitive files.",
                                    "Plan and conduct new employee orientation to foster positive attitude toward company goals",
                                    "Manage leave of absence programs",
                                    "Manage the company-wide benefit administration (payroll).",
                                    "Organizational and space planning.",
                                    "Manage the On-boarding of new employees: create a comprehensive training plan, check-in with new hires and be responsible for their integration into the company",
                                    "Provides general supporting activities such as the administration of company legal documents and permits; factory & office cleanliness; and company transportation"
                                ]
                            },
                            {
                                "title": "Requirements",
                                "item": [
                                    "Bachelor’s degree in any major, advantage from a reputable university",
                                    "Must demonstrate excellent oral and written communication skills appropriate for all levels of an organization in English and Bahasa",
                                    "Must demonstrate comfort speaking in front of groups",
                                    "Must have excellent level of accuracy and detail-orientation",
                                    "Excellent computer skills including Microsoft Office Word, Excel, Power Point",
                                    "Excellent organizational skills and ability to work with confidential information",
                                    "Strong interpersonal and soft skills",
                                    "Professional appearance and manner",
                                    "Ability to solve practical problems and carry out responsibility under general and little supervision",
                                    "Motivated and self-starter"
                                ]
                            },
                            {
                                "title": "Benefits",
                                "item": [
                                    "An ambitious startup environment with a vision and strategy to create something BIG",
                                    "A competitive compensation",
                                    "Working with young people on a great product",
                                    "Fun, casual, urban office environment"
                                ]
                            }
                        ]
                    }
                ]
            }
        ],
        "positionRight": [
            {
                "title": "Design",
                "subitem": [
					{
                        "name": "sr-ui-ux-designer",
                        "title": "Sr. UI/UX Designer (m/f)",
                        "file": "Sr. UI_UX Designer (m_f).pdf",
                        "description": "Location: Jakarta<br>From: As soon as possible<br><br>YesBoss is an on-demand virtual assistance service via text messages to make people's lives easier. Whether it is food delivery service, hotel reservation, flight ticket booking, groceries shopping, simply anything – because time matters. Our vision is to help people to have more time for more important things in life. We’re based in Jakarta with a highly motivated international team<br><br>We are seeking a sharp and talented UI/UX designer to join our design team in Jakarta. If you are passionate about apps/web design, work pixel-perfect and have a strong portfolio, apply today to be a part of a great team working on exciting projects and new product ideas.",
                        "detail": [
                            {
                                "title": "Responsibilities",
                                "item":[
									"Wireframes, workflows and prototypes for mobile and web",
									"Applying user-centric design thinking on projects",
									"Pixel-perfect deliveries",
									"Defining the user experience, including storytelling, personas, and interactions",
									"Applying user-centric design thinking on projects"
                                ]
                            },
                            {
                                "title": "Requirements",
                                "item": [
									"Pursuing a degree in a related field, such as information design, human-computer interaction, library science, cognitive science, graphic design – or not! Who cares? We don’t!",
									"Proficient in prototyping tools such as Marvelapp, Flinto, Invision or paper.",
									"Excellent in working with SketchApp and Photoshop",
									"Experience with mobile design (Android & Apple)",
									"Understanding of digital, mobile and social media space with great concepts, practices, procedures and technologies",
									"Eager to learn new things",
									"Of course, you can speak perfect English and Bahasa",
									"Excellent oral and written communication skills in English and Bahasa",
									"Ability to solve problems quickly and completely",
									"Ability to stay organized in a dynamic work environment",
									"Team work and positive attitude"
                                ]
                            }
                        ]
                    },
					{
                        "name": "sr-visual-designer",
                        "title": "Sr. Visual Designer (m/f)",
                        "file": "Sr. Visual Designer (m_f).pdf",
                        "description": "Location: Jakarta<br>From: As soon as possible<br><br>YesBoss is an on-demand virtual assistance service via text messages to make people's lives easier. Whether it is food delivery service, hotel reservation, flight ticket booking, groceries shopping, simply anything – because time matters. Our vision is to help people to have more time for more important things in life. We’re based in Jakarta with a highly motivated international team.<br><br>We are seeking a pixel-perfect talented design hero to join design team in Jakarta. If you are passionate about visual communication, hungry to design the future with us and you have a built a strong portfolio of media creation – apply today to be a part of a creative team working on exciting projects and new product ideas.",
                        "detail": [
                            {
                                "title": "Responsibilities",
                                "item":[
                                    "Brainstorm and design for social web and advertising channels",
                                    "Retouch photos for marketing campaigns",
                                    "Pixel-perfect deliveries for web and print media",
                                    "Create promotion material such as stickers, shirts",
                                    "Shape our brand and help telling a great story",
									"Supervise and inspire the creative team",
									"Lead creative sessions for project kick-offs"
                                ]
                            },
                            {
                                "title": "Requirements",
                                "item": [
                                    "Degree in a design related field – or not! Who cares? We don’t.",
                                    "Five to seven years in-depth knowledge in design (or you are just great at what you do)",
                                    "You are in love with Adobe Creative Suite and SketchApp.",
                                    "You can’t live without Dribbble, Behance and other great sources of inspiration",
                                    "You are curious and hungry to learn everything about digital design",
                                    "You are a perfectionist who knows how to work 80:20 if it gets busy",
									"Of course, you can speak perfect English and Bahasa",
									"If you start spinning ideas, everyone around you catches fire and gets inspired",
									"You are kind, a team player who loves to help others – you are a communicator",
									"People love you because you listen, talk, adapt, think ahead, inspire and most of all you are open to ideas because you enjoy beautiful results"
                                ]
                            }
                        ]
                    },
					{
                        "name": "ui-designer",
                        "title": "UI/UX Designer, intern (m/f)",
                        "file": "UI-UX Designer (intern).pdf",
                        "description": "Location: Jakarta<br>From: As soon as possible for minimum 6 month<br><br>YesBoss is an on-demand virtual assistance service via text messages to make people's lives easier. Whether it is food delivery service, hotel reservation, flight ticket booking, groceries shopping, simply anything – because time matters. Our vision is to help people have more time for more important things in life. We’re based in Berlin and Jakarta with a highly motivated international team.<br><br>We are seeking a sharp and talented UI/UX designer to join our design team in Jakarta.If you are passionate about apps/web design, work pixel-perfect and have a strong portfolio, apply today to be a part of a great team working on exciting projects and new product ideas.",
                        "detail": [
                            {
                                "title": "Responsibilities",
                                "item":[
                                    "Wireframes, workflows and prototypes for mobile and web",
                                    "Applying user-centric design thinking on projects",
                                    "Pixel-perfect deliveries",
                                    "Defining the user experience, including storytelling, personas, and interactions",
                                    "Applying user-centric design thinking on projects"
                                ]
                            },
                            {
                                "title": "Requirements",
                                "item": [
                                    "Pursuing a degree in a related field, such as information design, human-computer interaction, library science, cognitive science, graphic design, or industrial design a plus.",
                                    "Proficient in prototyping tools such as Marvelapp, Flinto or Invision",
                                    "Excellent in working with Sketchapp and Photoshop",
                                    "Experience with mobile design (Android & Apple)",
                                    "Understanding of digital, mobile and social media space with great concepts, practices, procedures and technologies",
                                    "Eager to learn new things",
                                    "Strong interest in design and marketing",
                                    "Excellent oral and written communication skills in English and Bahasa",
                                    "Ability to solve problems quickly and completely",
                                    "Ability to stay organized in a dynamic work environment",
                                    "Team work and positive attitude",
                                    "Experience in Javascript, HTML, CSS is a plus"
                                ]
                            }
                        ]
                    },
                    {
                        "name": "visual-designer",
                        "title": "Visual Designer, intern (m/f)",
                        "file": "Visual Designer, intern (m-f).pdf",
                        "description": "Location: Jakarta<br>From: As soon as possible for minimum 6 month<br><br>YesBoss is an on-demand virtual assistance service via text messages to make people's lives easier. Whether it is food delivery service, hotel reservation, flight ticket booking, groceries shopping, simply anything – because time matters. Our vision is to help people have more time for more important things in life. We’re based in Berlin and Jakarta with a highly motivated international team.<br><br>We are seeking a sharp and talented UI/UX designer to join our design team in Jakarta.If you are passionate about apps/web design, work pixel-perfect and have a strong portfolio, apply today to be a part of a great team working on exciting projects and new product ideas.",
                        "detail": [
                            {
                                "title": "Responsibilities",
                                "item":[
                                    "Brainstorm and design social media posts and advertising",
                                    "Retouching photos for marketing campaigns",
                                    "Pixel-perfect deliveries for web and print media",
                                    "Create promotion material such as stickers, shirts",
                                    "Shaping our brand visual wise"
                                ]
                            },
                            {
                                "title": "Requirements",
                                "item": [
                                    "ursuing a degree in a related field, such as graphic-, media-, or communication design Well-versed in common design tools such as the Adobe Creative Suite (Photoshop, Illustrator, and InDesign in particular)",
                                    "Experience in designing for e-commerce",
                                    "Understanding of digital, mobile and social media space with great concepts, practices, procedures and technologies",
                                    "Eager to learn new things",
                                    "Strong interest in design and marketing",
                                    "Excellent oral and written communication skills in English and Bahasa",
                                    "Ability to solve problems quickly and completely",
                                    "Ability to stay organized in a dynamic work environment",
                                    "Team work and positive attitude"
                                ]
                            }
                        ]
                    }
                ]
            },

            {
                "title": "Growth",
                "subitem": [
                    {
                        "name": "jr-growth-hacker",
                        "title": "Jr. Growth Hacker (m/f)",
                        "file": "Jr Growth Hacker.pdf",
                        "description": "Location: Jakarta<br>From: As soon as possible<br><br>YesBoss is an on-demand virtual assistance service via text messages to make people's lives easier. Whether it is food delivery service, hotel reservation, flight ticket booking, groceries shopping, simply anything – because time matters. Our vision is to help people have more time for more important things in life. We’re based in Berlin and Jakarta with a highly motivated international team.<br><br>We’re looking for a talented growth Wunderkind to join our Jakarta office to generate and execute ideas to help grow our user base. Do you have a magic blend of creative, analytical and technical skills?<br><br>Do you think growth hacking is based on mind-set and data driven frameworks and not something like a silver bullet for marketing campaigns? Great! You will work hand-in-hand with developers, product managers, data scientists and marketers to analyze trends and opportunities in user behavior, continuously iterate on our product with creative data driven experiments, improve our invite program with the main goal of acquiring, activating and retaining customers and uplifting growth. The if’s and why’s behind our customers behavior are you daily business. You will report directly to our COO.",
                        "detail": [
                            {
                                "title": "Responsibilities",
                                "item":[
                                    "Experiment with non-traditional methods to acquire users through different channels Create and monitor A/B tests on our website, ads and user communication flows Develop growth strategies in all business channels",
                                    "Research and ideate new experiments",
                                    "Document results and present lessons learned",
                                    "Create experimental Google & Facebook ads hand-in-hand with PPC team Create ideas to improve user communication",
                                    "Increase growth in acquisition, activation, retention, referral, revenue"
                                ]
                            },
                            {
                                "title": "Requirements",
                                "item": [
                                    "1-2 years experience in data driven marketing channels or creative communication",
                                    "Entrepreneurial, passionate about business and technology and strong commercial awareness",
                                    "Understanding concepts of the virality coefficient, conversion rates and human needs in general",
                                    "High level awareness of modern technologies, tools and analytics packages (such as Google Analytics, Optimizely, Mixpanel, Kissmetrics etc.)",
                                    "You are interested in emerging markets like SEA",
                                    "Strong background in marketing or design",
                                    "Ability to solve practical problems and carry out responsibility under little supervision",
                                    "Motivated and self-starter",
                                    "Ability to prioritize tasks and estimate their impact on key metrics",
                                    "Strong communication skills and ability to get your ideas across to both technical and business oriented audiences",
                                    "excellent level of accuracy and detail-orientation",
                                    "Excellent computer skills including Microsoft Office Word, Excel (for data analysis and manipulation with filters, pivot tables and graphs, etc), Power Point",
                                    "Basic skills in HTML/CSS and willing to learn more to execute experiments",
                                    "Excellent organizational skills and ability to work with confidential information",
                                    "Strong interpersonal and soft skills",
                                    "Excellent oral and written communication skills in English and Bahasa"
                                ]
                            },
                            {
                                "title": "Benefits",
                                "item": [
                                    "An ambitious startup environment with a vision to create something BIG A competitive compensation",
                                    "You will gain deep knowledge of all fields of our business",
                                    "You will learn something new every day",
                                    "Working with young ambitious people on a great product Time for personal development"
                                ]
                            }
                        ]
                    },
                    {
                        "name": "growth-hacking",
                        "title": "Growth Hacking, intern (m/f)",
                        "file": "Growth Hacking intern.pdf",
                        "description": "Location: Jakarta<br>From: As soon as possible<br><br>YesBoss is an on-demand virtual assistance service via text messages to make people's lives easier. Whether it is food delivery service, hotel reservation, flight ticket booking, groceries shopping, simply anything – because time matters. Our vision is to help people have more time for more important things in life. We’re based in Berlin and Jakarta with a highly motivated international team.<br><br>We’re looking for a talented growth Wunderkind to join our Jakarta office to generate and execute ideas to help grow our user base. Do you have a magic blend of creative, analytical and technical skills?<br><br>Do you think growth hacking is based on mind-set and data driven frameworks and not something like a silver bullet for marketing campaigns? Great! You will work hand-in-hand with developers, product managers, data scientists and marketers to analyze trends and opportunities in user behavior, continuously iterate on our product with creative data driven experiments, improve our invite program with the main goal of acquiring, activating and retaining customers and uplifting growth. The if’s and why’s behind our customers behavior are you daily business. You will report directly to our board.<br><br>This role is paid and will last for at least 3 months, after which you will be given a full time offer for the role of a Jr. Growth Hacker depending on your performance.",
                        "detail": [
                            {
                                "title": "Responsibilities",
                                "item":[
                                    "Experiment with non-traditional methods to acquire users",
                                    "Create and monitor A/B tests on our website, ads and user communication flows Develop growth strategies in all business channels",
                                    "Research and ideate new experiments",
                                    "Document results and present learnings",
                                    "Create experimental Google & Facebook ads hand-in-hand with PPC team Create ideas to improve user communication",
                                    "Increase growth in acquisition, activation, retention, referral, revenue"
                                ]
                            },
                            {
                                "title": "Requirements",
                                "item": [
                                    "Entrepreneurial, passionate about business and technology and strong commercial awareness",
                                    "Understanding concepts of the virality coefficient, conversion rates and human needs in general",
                                    "High level awareness of modern technologies, tools and analytics packages (such as Google Analytics, Optimizely etc.)",
                                    "You are interested in emerging markets like SEA",
                                    "Strong background in marketing or design",
                                    "Ability to solve practical problems and carry out responsibility under little supervision",
                                    "Motivated and self-starter",
                                    "Ability to prioritize tasks and estimate their impact on key metrics",
                                    "Strong communication skills and ability to get your ideas across to both technical and business oriented audiences",
                                    "excellent level of accuracy and detail-orientation",
                                    "Excellent computer skills including Microsoft Office Word, Excel (for data analysis and manipulation with filters, pivot tables and graphs, etc), Power Point",
                                    "Basic skills in HTML/CSS and willing to learn more to execute experiments",
                                    "Excellent organizational skills and ability to work with confidential information",
                                    "Strong interpersonal and soft skills",
                                    "Excellent oral and written communication skills in English and Bahasa"
                                ]
                            },
                            {
                                "title": "Benefits",
                                "item": [
                                    "An ambitious startup environment with a vision to create something BIG A competitive compensation",
                                    "You will gain deep knowledge of all fields of our business",
                                    "You will learn something new every day",
                                    "Working with young ambitious people on a great product Time for personal development"
                                ]
                            }
                        ]
                    }
                ]
            },
            {
                "title": "Service",
                "subitem": [
                    {
                        "name": "client-service-representative",
                        "title": "Client Service Representative (m/f)",
                        "file": "Client Service Representative.pdf",
                        "description": "Client Service Representative will be responsible to process client’s inquiries and monetary transaction. The role required to follows certain kind of procedure. Candidate needs to be able to work in the fast pace working environment.",
                        "detail": [
                            {
                                "title": "Responsibilities",
                                "item":[
                                    "Make people’s life easier",
                                    "Correspond with Clients via text",
                                    "Handling Clients inquiries",
                                    "Perform quality assurance on transactions that have been processed"
                                ]
                            },
                            {
                                "title": "Requirements",
                                "item": [
                                    "Willingness to make people’s life easier",
                                    "Willingness to learn",
                                    "Ability to work as a team",
                                    "Ability to work in shift and weekend",
                                    "Understand perfectly Indonesian and English language",
                                    "Ability to type fast",
                                    "Following national news and Indonesian startups scene"
                                ]
                            },
                            {
                                "title": "Benefits",
                                "item": [
                                    "An ambitious, international startup environment with a vision and strategy to create something BIG",
                                    "Working with young people on a great product",
                                    "Professional, casual, urban office environment"
                                ]
                            }
                        ]
                    },
                    {
                        "name": "operation-analyst",
                        "title": "Operation Analyst (m/f)",
                        "file": "Operations Analyst.pdf",
                        "description": "Operations Analyst performs duties related to evaluating and updating procedures, practices, and operations. Operations analyst also involved with the design, implementation, and improvement of new and existing product lines. Operations analyst required to works independently but also as part of teams.",
                        "detail": [
                            {
                                "title": "Responsibilities",
                                "item":[
                                    "Evaluating data",
                                    "Performing statistical analysis",
                                    "Verifying performance files",
                                    "Improving workflow",
                                    "Updating standard operating procedures",
                                    "Recommending future modifications for new product features",
                                    "Assessing market environment",
                                    "Developing standard process",
                                    "Communicating operational achievements"
                                ]
                            },
                            {
                                "title": "Requirements",
                                "item": [
                                    "Aptitude for math and statistics",
                                    "Problem solving and investigative skills",
                                    "Detailed and thorough",
                                    "Database administration",
                                    "Self motivated and dependable",
                                    "Project management skills",
                                    "Ability to meet deadlines",
                                    "Adaptable and proactive",
                                    "Respectful and professional",
                                    "Consistency and accuracy",
                                    "Multitasking"
                                ]
                            },
                            {
                                "title": "Benefits",
                                "item": [
                                    "An ambitious, international startup environment with a vision and strategy to create something BIG",
                                    "Competitive compensation",
                                    "Working with young people on a great product",
                                    "Professional, casual, urban office environment"
                                ]
                            }
                        ]
                    }
                ]
            }
        ]
    },
    "terms": {
        "title": "Terms and Conditions",
        "descriptionTop": "Situs ini dimiliki dan dioperasikan oleh YesBoss Group PTE. LTD. untuk penggunaan sesuai dengan Syarat & Ketentuan di bawah ini. Segala bentuk modifikasi dan/atau penggandaan dan/atau penyalahgunaan dari situs ini tidak dibenarkan. Dengan menggunakan jasa YesBoss, Anda dianggap telah membaca, memahami, dan menyetujui Syarat & Ketentuan. Apabila Anda tidak menyetujui Syarat & Ketentuan, Anda tidak diperkenankan menggunakan jasa YesBoss. YesBoss berhak untuk mengubah Syarat & Ketentuan sewaktu-waktu tanpa pemberitahuan terlebih dahulu. Harap baca Syarat & Ketentuan sebelum menggunakan jasa YesBoss.",
        "content": [
            {
                "title": "KETENTUAN UMUM",
                "items": [
                    "YesBoss merupakan penyedia layanan asisten pribadi virtual berbasis SMS di Indonesia yang dapat memenuhi segala jenis kebutuhan penggunanya dengan menggunakan jasa pihak ketiga. Apabila permintaan untuk memenuhi kebutuhan bertentangan dengan nilai, norma, ataupun hukum yang berlaku, YesBoss berhak menolak permintaan tersebut.",
                    "YesBoss tidak mengenakan biaya apapun atas layanan yang disediakan bagi para pengguna selain tarif SMS yang besarnya ditentukan oleh operator masing-masing. YesBoss hanya akan meminta pembayaran apabila permintaan pengguna membutuhkan transaksi keuangan.",
                    "YesBoss hanya akan merespon pengguna yang telah mengaktifkan layanan YesBoss dan mengirimkan permintaan kepada nomor YesBoss pada jam operasional YesBoss, yaitu 07:00-23:00 setiap harinya."
                ]
            },
            {
                "title": "KEWAJIBAN PENGGUNA",
                "items": [
                    "Batas usia minimum pengguna YesBoss adalah 17 tahun.",
                    "Pengguna wajib memberikan data pribadi yang benar saat mendaftar untuk menggunakan layanan YesBoss.",
                    "Pengguna yang telah menerima kode aktivasi dari YesBoss dilarang memindahtangankan kode aktivasi tersebut.",
                    "Apabila pengguna mengubah nomor ponselnya, pengguna wajib menginformasikan perubahan nomor ponsel tersebut kepada YesBoss.",
                    "Apabila pengguna menemukan penyalahgunaan layanan YesBoss, pengguna wajib melapor lewat info@yesbossnow.com",
                    "Pengguna wajib menggunakan layanan YesBoss sesuai nilai, norma, ataupun hukum yang berlaku. Dalam menggunakan layanan YesBoss, pengguna juga wajib menjaga sopan santun dan tidak menyinggung SARA (Suku, Agama, dan Ras).  YesBoss berhak memblokir pengguna apabila pengguna mengirimkan SMS dengan kasar dan/atau bernada ancaman dan menyinggung SARA (Suku, Agama, dan Ras)."
                ]
            },
            {
                "title": "LAYANAN BERBIAYA",
                "items": [
                    "Apabila permintaan pengguna merupakan layanan berbiaya, YesBoss berkewajiban untuk mencarikan penawaran dengan harga terbaik. ",
                    "Pengguna dapat menyetujui penawaran yang diberikan oleh YesBoss yang nantinya akan dikondisikan menjadi pemesanan sehingga pengguna berkewajiban untuk melakukan pembayaran terhadap pemesanan tersebut. YesBoss berkewajiban untuk memandu pengguna dalam proses pembayaran sampai pesanan tersebut diterima oleh pengguna.",
                    "Pengguna dapat memilih metode pembayaran yang ingin digunakan, dengan catatan bahwa jenis metode pembayaran bergantung pada metode pembayaran yang disediakan oleh pihak ketiga, yaitu tunai, transfer bank, atau akun Veritrans milik YesBoss. ",
                    "Apabila pengguna tidak melakukan pembayaran melalui metode pembayaran yang telah disetujui hingga batas waktu yang ditentukan, maka YesBoss berhak membatalkan pemesanan."
                ]
            },
            {
                "title": "JAMINAN",
                "items": [
                    "YesBoss bertanggung jawab akan pemenuhan permintaan pelanggan mulai dari pemesanan kepada pihak ketiga hingga diterimanya barang/jasa yang dibutuhkan melalui berbagai penyedia barang/jasa yang terpercaya, namun YesBoss tidak dapat menjamin bahwa layanan yang diberikan pihak ketiga akan 100% berjalan lancar.",
                    "Dalam memenuhi permintaan pengguna, YesBoss akan memberikan usaha terbaik, namun pengguna perlu memahami bahwa pelayanan YesBoss tidak dapat 100% berjalan mulus secara teknis dikarenakan oleh tetapi tidak terbatas pada kapasitas pesan yang masuk, perbaikan server, gangguan pada operator, atau gangguan listrik. Apabila YesBoss mengalami gangguan sebagaimana telah tersebut yang memiliki dampak terhadap jalannya layanan YesBoss, YesBoss akan segera mengumumkannya secara resmi melalui akun YesBoss di media sosial."
                ]
            },
            {
                "title": "PERLINDUNGAN DATA",
                "items": [
                    "YesBoss berkewajiban untuk menjaga kerahasiaan data pribadi penggunanya yang mencakup tetapi tidak terbatas pada nama, nomor ponsel, alamat email, alamat rumah, dan data pemesanan. Untuk kebutuhan internal atau pemasaran, YesBoss berhak untuk menggunakan data pribadi pengguna, misalnya untuk survey atau distribusi newsletter.",
                    "YesBoss tidak memiliki hak untuk memberikan atau menjual data pribadi pengguna kepada pihak ketiga, kecuali jika data tersebut dibutuhkan untuk memenuhi kebutuhan pengguna sesuai dengan permintaan pengguna yang dikirimkan kepada YesBoss.",
                    "YesBoss tidak menyimpan data keuangan pengguna dalam bentuk nomor kartu kredit. Nomor kartu kredit hanya akan dimintakan untuk pembayaran melalui Veritrans yang terenskripsi dan HTTPS 128 bit secure URL."
                ]
            }
        ],
        "descriptionBottom": "Syarat & Ketentuan ini tunduk, diatur, dan ditafsirkan berdasarkan hukum Republik Indonesia. Segala bentuk klaim atau sengketa yang berakibat dari Syarat & Ketentuan ini akan diselesaikan secara privat melalui arbitrasi di Indonesia berdasarkan hukum Republik Indonesia. Apabila Anda memiliki pertanyaan mengenai Syarat & Ketentuan ini, silakan hubungi kami melalui info@yesbossnow.com"
    },
	"homeFooter": {
		"lists": [
			{"title": "Makanan", "image":"/images/Delivery makanan.png"},
			{"title": "Tiket", "image":"/images/Tiket nonton.png"},
			{"title": "Wisata", "image":"/images/Akomodasi wisata.png"},
			{"title": "Reservasi", "image":"/images/Reservasi restoran.png"},
			{"title": "Tiket Pesawat", "image":"/images/Tiket pesawat.png"},
			{"title": "Fashion", "image":"/images/Belanja fashion.png"},
			{"title": "Elektronik", "image":"/images/Belanja elektronik.png"},
			{"title": "Transportasi", "image":"/images/Transportasi.png"},
			{"title": "Jasa Kurir", "image":"/images/Jasa kurir.png"}
		]
	},
    "generalFooter": {
        "copyright": "© YESBOSS. ALL RIGHTS RESERVED - WWW.YESBOSSNOW.COM",
        "nav": [
            {"title": "Press", "path": "press"},
            {"title": "Contact Us", "path": "contact"},
            {"title": "Business", "path": "business"},
            {"title": "Jobs", "path": "jobs"},
            {"title": "T&C", "path": "terms"}
        ]
    },
    "bubbleChat": [
        {
            "background": "/images/mainBackground5.jpg",
            "items": [
                "Hai Andy, carikan saya penerbangan termurah ke Bali untuk Sabtu ini. Kalau bisa di atas jam 3 sore ya",
                "Air Asia QZ-7532, CGK-DPS 17:30-20:15 02/04/16, IDR 413.700. Apakah Anda berminat, Boss?",
                "Oke. Saya bayar pakai kartu kredit ya",
                "Yes Boss! E-ticket akan dirimkan setelah Anda melakukan pembayaran",
                "Sudah dibayar ya. Tiket juga sudah saya terima via email. Thanks Andy!"
            ]
            
        },
        {
            "background": "/images/mainBackground3.jpg",
            "items": [
                "Cindy, bingung nih. Kasih kado apa ya ke pacar untuk Valentine's Day?",
                "Tenang, Boss. Cindy akan bantu, Boss. Bagaimana dengan bunga mawar dan 2 tiket nonton special show Mocca hari Sabtu ini?",
                "Wuah boleh tuh, Cind! Let me do bank transfer.",
                "Baik, Boss!"
            ]
            
        },
        {
            "background": "/images/mainBackground4.jpg",
            "items": [
                "Tolong reservasikan Fujin Senopati untuk 8 orang jam 8 malam ini",
                "Yes Boss! Reservasi di Fujin pukul 20:00 sudah dilakukan atas nama Anda. Ada lagi yang bisa Tommy bantu?",
                "Itu saja cukup, Tommy. Thanks ya",
                "Kembali, Boss. Semoga hari Anda menyenangkan!"
            ]
        },        
        {
            "background": "/images/mainBackground.jpg",
            "items": [
                "Hai ! Tolong pesankan Martabak 8 Rasa dari Markobar, kirim ke kantor saya sekarang",
                "Yes Boss! Total harga menjadi IDR 100.000 termasuk ongkos kurir. Apakah Anda setuju?",
                "Iya, ditunggu segera ya :-D",
                "Kurir akan tiba dalam waktu dalam 30 menit, Boss. Ada lagi yang bisa saya bantu?"
            ]
        },
        {
            "background": "/images/mainBackground2.jpg",
            "items": [
                "Hi Andy, boleh pesenin 1 pizza pepperoni size besar dan 1 diet coke?",
                "Tentu, Boss! Total IDR 70.000 termasuk ongkor kirim ke rumah Boss",
                "Perfect. Kira-kira sampe berapa lama ya?",
                "Kurir sudah dalam perjalanan, Boss. Akan tiba di tempat dalam waktu 30 menit"
            ]
        }
    ]
}
